# Blender MTL File: 'None'
# Material Count: 3

newmtl Container
Ns 13.725490
Ka 0.588000 0.588000 0.588000
Kd 0.588000 0.588000 0.588000
Ks 0.000000 0.000000 0.000000
Ke 0.000000 0.000000 0.000000
Ni 1.500000
d 1.000000
illum 2
map_Kd /home/daniel-robson/Downloads/Container_DiffuseMap.jpg
map_Bump /home/daniel-robson/Downloads/Kontajner_001_bumped_Normal_Bump.tga
map_Ka /home/daniel-robson/Downloads/Container_DiffuseMap.jpg

newmtl Klimatizacia
Ns 9.803922
Ka 0.588000 0.588000 0.588000
Kd 0.588000 0.588000 0.588000
Ks 0.360000 0.360000 0.360000
Ke 0.000000 0.000000 0.000000
Ni 1.500000
d 1.000000
illum 2
map_Kd /home/daniel-robson/Downloads/KlimatizaciaDiffuseMap.jpg
map_Ka /home/daniel-robson/Downloads/KlimatizaciaDiffuseMap.jpg

newmtl Material
Ns 96.078431
Ka 1.000000 1.000000 1.000000
Kd 0.640000 0.640000 0.640000
Ks 0.500000 0.500000 0.500000
Ke 0.000000 0.000000 0.000000
Ni 1.000000
d 1.000000
illum 2
